{
 "custom_fields": [
  {
   "_assign": null, 
   "_comments": null, 
   "_liked_by": null, 
   "_user_tags": null, 
   "allow_on_submit": 0, 
   "bold": 0, 
   "collapsible": 0, 
   "collapsible_depends_on": null, 
   "columns": 0, 
   "creation": "2017-08-21 15:06:06.197544", 
   "default": null, 
   "depends_on": null, 
   "description": null, 
   "docstatus": 0, 
   "dt": "Item Group", 
   "fieldname": "tax", 
   "fieldtype": "Select", 
   "hidden": 0, 
   "idx": 9, 
   "ignore_user_permissions": 0, 
   "ignore_xss_filter": 0, 
   "in_global_search": 0, 
   "in_list_view": 0, 
   "in_standard_filter": 0, 
   "insert_after": "default_cost_center", 
   "label": "Tax", 
   "modified": "2017-08-21 15:06:06.197544", 
   "modified_by": "Administrator", 
   "name": "Item Group-tax", 
   "no_copy": 0, 
   "options": "\nIVA 12%\nIVA 0%\nNo aplica impuestos", 
   "owner": "Administrator", 
   "parent": null, 
   "parentfield": null, 
   "parenttype": null, 
   "permlevel": 0, 
   "precision": "", 
   "print_hide": 0, 
   "print_hide_if_no_value": 0, 
   "print_width": null, 
   "read_only": 0, 
   "report_hide": 0, 
   "reqd": 0, 
   "search_index": 0, 
   "unique": 0, 
   "width": null
  }
 ], 
 "custom_perms": [], 
 "doctype": "Item Group", 
 "property_setters": [
  {
   "_assign": null, 
   "_comments": null, 
   "_liked_by": null, 
   "_user_tags": null, 
   "creation": "2017-08-21 17:21:27.911504", 
   "default_value": null, 
   "doc_type": "Item Group", 
   "docstatus": 0, 
   "doctype_or_field": "DocType", 
   "field_name": null, 
   "idx": 0, 
   "modified": "2017-08-21 17:21:27.911504", 
   "modified_by": "Administrator", 
   "name": "Item Group-read_only_onload", 
   "owner": "Administrator", 
   "parent": null, 
   "parentfield": null, 
   "parenttype": null, 
   "property": "read_only_onload", 
   "property_type": "Check", 
   "value": null
  }, 
  {
   "_assign": null, 
   "_comments": null, 
   "_liked_by": null, 
   "_user_tags": null, 
   "creation": "2017-08-21 16:52:11.076219", 
   "default_value": null, 
   "doc_type": "Item Group", 
   "docstatus": 0, 
   "doctype_or_field": "DocField", 
   "field_name": "sb9", 
   "idx": 0, 
   "modified": "2017-08-21 16:52:11.076219", 
   "modified_by": "Administrator", 
   "name": "Item Group-sb9-hidden", 
   "owner": "Administrator", 
   "parent": null, 
   "parentfield": null, 
   "parenttype": null, 
   "property": "hidden", 
   "property_type": "Check", 
   "value": "1"
  }, 
  {
   "_assign": null, 
   "_comments": null, 
   "_liked_by": null, 
   "_user_tags": null, 
   "creation": "2017-08-21 16:52:11.068591", 
   "default_value": null, 
   "doc_type": "Item Group", 
   "docstatus": 0, 
   "doctype_or_field": "DocField", 
   "field_name": "default_cost_center", 
   "idx": 0, 
   "modified": "2017-08-21 16:52:11.068591", 
   "modified_by": "Administrator", 
   "name": "Item Group-default_cost_center-hidden", 
   "owner": "Administrator", 
   "parent": null, 
   "parentfield": null, 
   "parenttype": null, 
   "property": "hidden", 
   "property_type": "Check", 
   "value": "1"
  }, 
  {
   "_assign": null, 
   "_comments": null, 
   "_liked_by": null, 
   "_user_tags": null, 
   "creation": "2017-08-21 16:52:11.065156", 
   "default_value": null, 
   "doc_type": "Item Group", 
   "docstatus": 0, 
   "doctype_or_field": "DocField", 
   "field_name": "default_expense_account", 
   "idx": 0, 
   "modified": "2017-08-21 16:52:11.065156", 
   "modified_by": "Administrator", 
   "name": "Item Group-default_expense_account-hidden", 
   "owner": "Administrator", 
   "parent": null, 
   "parentfield": null, 
   "parenttype": null, 
   "property": "hidden", 
   "property_type": "Check", 
   "value": "1"
  }, 
  {
   "_assign": null, 
   "_comments": null, 
   "_liked_by": null, 
   "_user_tags": null, 
   "creation": "2017-08-21 16:52:11.060282", 
   "default_value": null, 
   "doc_type": "Item Group", 
   "docstatus": 0, 
   "doctype_or_field": "DocField", 
   "field_name": "default_income_account", 
   "idx": 0, 
   "modified": "2017-08-21 16:52:11.060282", 
   "modified_by": "Administrator", 
   "name": "Item Group-default_income_account-hidden", 
   "owner": "Administrator", 
   "parent": null, 
   "parentfield": null, 
   "parenttype": null, 
   "property": "hidden", 
   "property_type": "Check", 
   "value": "1"
  }
 ], 
 "sync_on_migrate": 1
}